係り受け解析
…
3文目の形態素列

res %>%
  dplyr::filter(sentence_idx == 3) %>%
  dplyr::select(word)

#> # A tibble: 78 x 1
#>    word    
#>    <chr>   
#>  1 相愛    
#>  2 大学    
#>  3 人文学部
#>  4 教授    
#>  5 の      
#>  6 釈      
#>  7 徹      
#>  8 宗      
#>  9 は      
#> 10 「      
#> # ... with 68 more rows
…
pattern <- memo %>%
  dplyr::filter(POS1 == "動詞") %>%
  dplyr::group_by(sentence_idx, chunk_idx, D1) %>%
  dplyr::group_map(~ .x %>%
    dplyr::mutate(collocation = stringr::str_c(
      "",
      memo$Original[memo$sentence_idx == .y$sentence_idx & memo$D2 == .y$D1 & memo$POS1 == "助詞"],
      collapse = " "
    ))) %>%
  purrr::map_dfr(~.) %>%
  dplyr::select(Original, collocation)

pattern

#> # A tibble: 192 x 2
#>    Original collocation
#>    <chr>    <chr>      
#>  1 示す     に は で を
#>  2 する     を         
#>  3 示す     は て を   
#>  4 する     は を      
#>  5 する     は を      
#>  6 示す     を         
#>  7 呼ぶ     と         
#>  8 れる     と         
#>  9 ある     は も      
#> 10 する     を で      
#> # ... with 182 more rows
…
pattern

#> # A tibble: 192 x 3
#>    Original collocation chunk                                      
#>    <chr>    <chr>       <chr>                                      
#>  1 示す     に は で を 間に、 ジョエル・は プログラム中で パワーを
#>  2 する     を          『パーセプトロン』を                       
#>  3 示す     は て を    は 出版して 限界を                         
#>  4 する     は を       アラン・は プログラミング言語を            
#>  5 する     は を       は ルールベースシステムを                  
#>  6 示す     を          パワーを                                   
#>  7 呼ぶ     と          エキスパートシステムと                     
#>  8 れる     と          エキスパートシステムと                     
#>  9 ある     は も       これは、 ことも                            
#> 10 する     を で       人工知能プロジェクトを 倫理面で            
#> # ... with 182 more rows
…
pattern

#> # A tibble: 168 x 3
#>    surface_form         collocation chunk                            
#>    <chr>                <chr>       <chr>                            
#>  1 プログラム中で       ""          ""                               
#>  2 積分問題での         ""          ""                               
#>  3 記号的推論の         "で の"     "積分問題での 積分問題での"      
#>  4 出版して             "を"        "『パーセプトロン』を"           
#>  5 プログラミング言語を ""          ""                               
#>  6 開発した。           "は を"     "アラン・は プログラミング言語を"
#>  7 医学的診断と         ""          ""                               
#>  8 構築し、             "は を"     "は ルールベースシステムを"      
#>  9 知識表現と           ""          ""                               
#> 10 推論の               "と"        "知識表現と"                     
#> # ... with 158 more rows
…
