Chapter 4 係り受け解析 | Rで言語処理100本ノックを解くわけがない
…
pattern <- memo %>%
  dplyr::filter(POS1 == "動詞") %>%
  dplyr::group_by(sentence_idx, chunk_idx, D1) %>%
  dplyr::group_map(~ .x %>%
    dplyr::mutate(collocation = stringr::str_c(
      "",
      memo$Original[memo$sentence_idx == .y$sentence_idx & memo$D2 == .y$D1 & memo$POS1 == "助詞"],
      collapse = " "
    ))) %>%
  purrr::map_dfr(~.) %>%
  dplyr::select(Original, collocation)

pattern

#> # A tibble: 215 x 2
#>    Original collocation
#>    <chr>    <chr>      
#>  1 向ける   に         
#>  2 する     で を      
#>  3 する     と         
#>  4 開く     を に      
#>  5 する     は など を 
#>  6 する     も         
#>  7 れる     も         
#>  8 いる     も         
#>  9 なる     と         
#> 10 付ける   で に を   
#> # ... with 205 more rows
…
pattern

#> # A tibble: 215 x 3
#>    Original collocation chunk                                     
#>    <chr>    <chr>       <chr>                                     
#>  1 向ける   に          開発支援に                                
#>  2 する     で を       年で （約億円）を                         
#>  3 する     と          支出すると                                
#>  4 開く     を に       研究所を パリに                           
#>  5 する     は など を  フランス大統領は 富士通などを 富士通などを
#>  6 する     も          連携も                                    
#>  7 れる     も          連携も                                    
#>  8 いる     も          連携も                                    
#>  9 なる     と          計算資源と                                
#> 10 付ける   で に を    画像処理コンテストで 手法に 圧倒的大差を  
#> # ... with 205 more rows
…
pattern

#> # A tibble: 171 x 3
#>    surface_form           collocation     chunk                                    
#>    <chr>                  <chr>           <chr>                                    
#>  1 開発支援に開発支援に   "の"            "分野の"                                 
#>  2 開発支援に開発支援に   "の"            "分野の"                                 
#>  3 支出すると             "で を"         "年で （約億円）を"                      
#>  4 宣言し、               "と"            "支出すると"                             
#>  5 招致した。             "は など を"    "フランス大統領は 富士通などを 富士通などを"~
#>  6 研究における           ""              ""                                       
#>  7 連携も                 "とも における" "イギリスとも 研究における"              
#>  8 決定されている。       "も"            "連携も"                                 
#>  9 発明と、               "の"            "の"                                     
#> 10 ビッグデータ収集環境の "の"            "年以降の"                               
#> # ... with 161 more rows
…
pattern %>%
  dplyr::select(path) %>%
  dplyr::filter(path != "")

#> # A tibble: 183 x 1
#>    path                                                                            
#>    <chr>                                                                           
#>  1 フランス大統領は -> 分野の -> 開発支援に -> 向け -> 年で -> 億ドル -> （約億円）を -> 支出すると -> 宣言し、 -> 研究所を ~
#>  2 分野の -> 開発支援に -> 向け -> 年で -> 億ドル -> （約億円）を -> 支出すると -> 宣言し、 -> 研究所を -> パリに -> 開き~
#>  3 開発支援に -> 向け -> 年で -> 億ドル -> （約億円）を -> 支出すると -> 宣言し、 -> 研究所を -> パリに -> 開き、 -> フェ~
#>  4 年で -> 億ドル -> （約億円）を -> 支出すると -> 宣言し、 -> 研究所を -> パリに -> 開き、 -> フェイスブック、 -> 、 -> ~
#>  5 億ドル -> （約億円）を -> 支出すると -> 宣言し、 -> 研究所を -> パリに -> 開き、 -> フェイスブック、 -> 、 -> 富士通などを~
#>  6 支出すると -> 宣言し、 -> 研究所を -> パリに -> 開き、 -> フェイスブック、 -> 、 -> 富士通などを -> 招致した。 -> イギリス~
#>  7 宣言し、 -> 研究所を -> パリに -> 開き、 -> フェイスブック、 -> 、 -> 富士通などを -> 招致した。 -> イギリスとも -> 研究に~
#>  8 研究所を -> パリに -> 開き、 -> フェイスブック、 -> 、 -> 富士通などを -> 招致した。 -> イギリスとも -> 研究における -> 長~
#>  9 パリに -> 開き、 -> フェイスブック、 -> 、 -> 富士通などを -> 招致した。 -> イギリスとも -> 研究における -> 長期的な -> 連~
#> 10 フェイスブック、 -> 、 -> 富士通などを -> 招致した。 -> イギリスとも -> 研究における -> 長期的な -> 連携も -> 決定されている。~
#> # ... with 173 more rows
…
